<?xml version="1.0" encoding="UTF-8" standalone="no"?>
<!-- Created with Inkscape (http://www.inkscape.org/) -->

<svg
   xmlns:osb="http://www.openswatchbook.org/uri/2009/osb"
   xmlns:dc="http://purl.org/dc/elements/1.1/"
   xmlns:cc="http://creativecommons.org/ns#"
   xmlns:rdf="http://www.w3.org/1999/02/22-rdf-syntax-ns#"
   xmlns:svg="http://www.w3.org/2000/svg"
   xmlns="http://www.w3.org/2000/svg"
   xmlns:xlink="http://www.w3.org/1999/xlink"
   xmlns:sodipodi="http://sodipodi.sourceforge.net/DTD/sodipodi-0.dtd"
   xmlns:inkscape="http://www.inkscape.org/namespaces/inkscape"
   inkscape:export-ydpi="150"
   inkscape:export-xdpi="150"
   width="128"
   height="128"
   id="svg11300"
   sodipodi:version="0.32"
   inkscape:version="0.92.5 (2060ec1f9f, 2020-04-08)"
   sodipodi:docname="icon.svg"
   inkscape:output_extension="org.inkscape.output.svg.inkscape"
   version="1.0"
   style="display:inline;enable-background:new"
   viewBox="0 0 128 128">
  <title
     id="title4162">Adwaita Icon Template</title>
  <defs
     id="defs3">
    <inkscape:path-effect
       effect="simplify"
       id="path-effect4710"
       is_visible="true"
       steps="1"
       threshold="0.00789474"
       smooth_angles="360"
       helper_size="0"
       simplify_individual_paths="false"
       simplify_just_coalesce="false"
       simplifyindividualpaths="false"
       simplifyJustCoalesce="false" />
    <inkscape:path-effect
       effect="simplify"
       id="path-effect4706"
       is_visible="true"
       steps="1"
       threshold="0.00789474"
       smooth_angles="360"
       helper_size="0"
       simplify_individual_paths="false"
       simplify_just_coalesce="false"
       simplifyindividualpaths="false"
       simplifyJustCoalesce="false" />
    <linearGradient
       id="linearGradient871"
       osb:paint="solid">
      <stop
         style="stop-color:#000000;stop-opacity:1;"
         offset="0"
         id="stop869" />
    </linearGradient>
    <linearGradient
       y2="236"
       x2="96"
       y1="236"
       x1="32"
       gradientTransform="translate(604.81684,170.58641)"
       gradientUnits="userSpaceOnUse"
       id="linearGradient1099"
       xlink:href="#linearGradient1036" />
    <linearGradient
       id="linearGradient1036">
      <stop
         id="stop1032"
         offset="0"
         style="stop-color:#d5d3cf;stop-opacity:1;" />
      <stop
         id="stop1034"
         offset="1"
         style="stop-color:#f6f5f4;stop-opacity:1" />
    </linearGradient>
    <radialGradient
       r="32"
       fy="-76"
       fx="-244"
       cy="-76"
       cx="-244"
       gradientTransform="matrix(0.88333331,0,0,0.88333331,-460.35018,463.11973)"
       gradientUnits="userSpaceOnUse"
       id="radialGradient1103"
       xlink:href="#linearGradient1069" />
    <linearGradient
       id="linearGradient1069">
      <stop
         id="stop1065"
         offset="0"
         style="stop-color:#d5d3cf;stop-opacity:1" />
      <stop
         id="stop1067-1"
         offset="1"
         style="stop-color:#949390;stop-opacity:1" />
    </linearGradient>
    <linearGradient
       gradientUnits="userSpaceOnUse"
       y2="232"
       x2="64"
       y1="262.5"
       x1="64"
       id="linearGradient1027"
       xlink:href="#linearGradient1025"
       gradientTransform="translate(-470.5864,432.81685)" />
    <linearGradient
       id="linearGradient1025">
      <stop
         id="stop1021"
         offset="0"
         style="stop-color:#9a9996;stop-opacity:1" />
      <stop
         id="stop1023"
         offset="1"
         style="stop-color:#77767b;stop-opacity:1" />
    </linearGradient>
    <inkscape:path-effect
       effect="spiro"
       id="path-effect35304-9"
       is_visible="true" />
    <clipPath
       clipPathUnits="userSpaceOnUse"
       id="clipPath1609-7">
      <path
         sodipodi:nodetypes="cccccc"
         inkscape:connector-curvature="0"
         id="path1611-5"
         d="m 252,116 28,-28 v -8 h -36 v 36 z"
         style="fill:#e74747;stroke:none;stroke-width:0.25px;stroke-linecap:butt;stroke-linejoin:miter;stroke-opacity:1" />
    </clipPath>
    <clipPath
       clipPathUnits="userSpaceOnUse"
       id="clipPath2338">
      <rect
         style="fill:#4affff;fill-opacity:1;stroke:#000000;stroke-linecap:round;stroke-linejoin:miter;stroke-opacity:1;paint-order:stroke fill markers"
         id="rect2340"
         width="30.140425"
         height="16.26346"
         x="-69.738403"
         y="186.50937"
         ry="0" />
    </clipPath>
  </defs>
  <sodipodi:namedview
     stroke="#ef2929"
     fill="#f57900"
     id="base"
     pagecolor="#000000"
     bordercolor="#666666"
     borderopacity="0.25490196"
     inkscape:pageopacity="0"
     inkscape:pageshadow="2"
     inkscape:zoom="3.3941125"
     inkscape:cx="30.020455"
     inkscape:cy="63.032313"
     inkscape:current-layer="layer9"
     showgrid="true"
     inkscape:grid-bbox="true"
     inkscape:document-units="px"
     inkscape:showpageshadow="false"
     inkscape:window-width="1366"
     inkscape:window-height="704"
     inkscape:window-x="0"
     inkscape:window-y="27"
     width="400px"
     height="300px"
     inkscape:snap-nodes="true"
     inkscape:snap-bbox="true"
     objecttolerance="7"
     gridtolerance="12"
     guidetolerance="13"
     inkscape:window-maximized="1"
     inkscape:pagecheckerboard="false"
     showguides="false"
     inkscape:guide-bbox="true"
     inkscape:locked="false"
     inkscape:measure-start="0,0"
     inkscape:measure-end="0,0"
     inkscape:object-nodes="true"
     inkscape:bbox-nodes="true"
     inkscape:snap-global="true"
     inkscape:object-paths="true"
     inkscape:snap-intersection-paths="true"
     inkscape:snap-bbox-edge-midpoints="true"
     inkscape:snap-bbox-midpoints="true"
     showborder="false"
     inkscape:snap-center="true"
     inkscape:snap-object-midpoints="true"
     inkscape:snap-midpoints="true"
     inkscape:snap-smooth-nodes="true"
     inkscape:snap-text-baseline="true">
    <inkscape:grid
       type="xygrid"
       id="grid5883"
       spacingx="2"
       spacingy="2"
       enabled="true"
       visible="true"
       empspacing="4"
       originx="0"
       originy="0" />
    <sodipodi:guide
       position="64,8"
       orientation="0,1"
       id="guide1073"
       inkscape:locked="false"
       inkscape:label=""
       inkscape:color="rgb(0,0,255)" />
    <sodipodi:guide
       position="12,64"
       orientation="1,0"
       id="guide1075"
       inkscape:locked="false"
       inkscape:label=""
       inkscape:color="rgb(0,0,255)" />
    <sodipodi:guide
       position="64,104"
       orientation="0,1"
       id="guide1099"
       inkscape:locked="false"
       inkscape:label=""
       inkscape:color="rgb(0,0,255)" />
    <sodipodi:guide
       position="64,128"
       orientation="0,1"
       id="guide993"
       inkscape:locked="false"
       inkscape:label=""
       inkscape:color="rgb(0,0,255)" />
    <sodipodi:guide
       position="104,64"
       orientation="1,0"
       id="guide995"
       inkscape:locked="false"
       inkscape:label=""
       inkscape:color="rgb(0,0,255)" />
    <sodipodi:guide
       position="9.2651362e-08,64"
       orientation="1,0"
       id="guide867"
       inkscape:locked="false"
       inkscape:label=""
       inkscape:color="rgb(0,0,255)" />
    <sodipodi:guide
       position="120,64"
       orientation="1,0"
       id="guide869"
       inkscape:locked="false"
       inkscape:label=""
       inkscape:color="rgb(0,0,255)" />
    <sodipodi:guide
       position="64,116"
       orientation="0,1"
       id="guide871"
       inkscape:locked="false"
       inkscape:label=""
       inkscape:color="rgb(0,0,255)" />
    <inkscape:grid
       type="xygrid"
       id="grid873"
       spacingx="1"
       spacingy="1"
       empspacing="8"
       color="#000000"
       opacity="0.49019608"
       empcolor="#000000"
       empopacity="0.08627451"
       dotted="true" />
    <sodipodi:guide
       position="24,64"
       orientation="1,0"
       id="guide877"
       inkscape:locked="false"
       inkscape:label=""
       inkscape:color="rgb(0,0,255)" />
    <sodipodi:guide
       position="116,64"
       orientation="1,0"
       id="guide879"
       inkscape:locked="false"
       inkscape:label=""
       inkscape:color="rgb(0,0,255)" />
    <sodipodi:guide
       position="64,120"
       orientation="0,1"
       id="guide881"
       inkscape:locked="false"
       inkscape:label=""
       inkscape:color="rgb(0,0,255)" />
    <sodipodi:guide
       position="64,12"
       orientation="0,1"
       id="guide883"
       inkscape:locked="false"
       inkscape:label=""
       inkscape:color="rgb(0,0,255)" />
    <sodipodi:guide
       position="8,64"
       orientation="1,0"
       id="guide885"
       inkscape:locked="false"
       inkscape:label=""
       inkscape:color="rgb(0,0,255)" />
    <sodipodi:guide
       position="128,64"
       orientation="1,0"
       id="guide887"
       inkscape:locked="false"
       inkscape:label=""
       inkscape:color="rgb(0,0,255)" />
    <sodipodi:guide
       position="64,0"
       orientation="0,1"
       id="guide897"
       inkscape:locked="false"
       inkscape:label=""
       inkscape:color="rgb(0,0,255)" />
    <sodipodi:guide
       position="64,24"
       orientation="0,1"
       id="guide899"
       inkscape:locked="false"
       inkscape:label=""
       inkscape:color="rgb(0,0,255)" />
    <sodipodi:guide
       position="256,256"
       orientation="-0.70710678,0.70710678"
       id="guide950"
       inkscape:locked="false"
       inkscape:label=""
       inkscape:color="rgb(0,0,255)" />
    <sodipodi:guide
       position="64,64"
       orientation="0.70710678,0.70710678"
       id="guide952"
       inkscape:locked="false"
       inkscape:label=""
       inkscape:color="rgb(0,0,255)" />
  </sodipodi:namedview>
  <metadata
     id="metadata4">
    <rdf:RDF>
      <cc:Work
         rdf:about="">
        <dc:format>image/svg+xml</dc:format>
        <dc:type
           rdf:resource="http://purl.org/dc/dcmitype/StillImage" />
        <dc:creator>
          <cc:Agent>
            <dc:title>GNOME Design Team</dc:title>
          </cc:Agent>
        </dc:creator>
        <dc:source />
        <cc:license
           rdf:resource="http://creativecommons.org/licenses/by-sa/4.0/" />
        <dc:title>Adwaita Icon Template</dc:title>
        <dc:subject>
          <rdf:Bag />
        </dc:subject>
        <dc:date />
        <dc:rights>
          <cc:Agent>
            <dc:title />
          </cc:Agent>
        </dc:rights>
        <dc:publisher>
          <cc:Agent>
            <dc:title />
          </cc:Agent>
        </dc:publisher>
        <dc:identifier />
        <dc:relation />
        <dc:language />
        <dc:coverage />
        <dc:description />
        <dc:contributor>
          <cc:Agent>
            <dc:title />
          </cc:Agent>
        </dc:contributor>
      </cc:Work>
      <cc:License
         rdf:about="http://creativecommons.org/licenses/by-sa/4.0/">
        <cc:permits
           rdf:resource="http://creativecommons.org/ns#Reproduction" />
        <cc:permits
           rdf:resource="http://creativecommons.org/ns#Distribution" />
        <cc:requires
           rdf:resource="http://creativecommons.org/ns#Notice" />
        <cc:requires
           rdf:resource="http://creativecommons.org/ns#Attribution" />
        <cc:permits
           rdf:resource="http://creativecommons.org/ns#DerivativeWorks" />
        <cc:requires
           rdf:resource="http://creativecommons.org/ns#ShareAlike" />
      </cc:License>
    </rdf:RDF>
  </metadata>
  <g
     id="layer1"
     inkscape:label="App Icon"
     inkscape:groupmode="layer"
     style="display:inline"
     transform="translate(0,-172)">
    <g
       inkscape:groupmode="layer"
       id="layer2"
       inkscape:label="baseplate"
       style="display:none"
       sodipodi:insensitive="true">
      <g
         style="display:inline;fill:#000000;enable-background:new"
         transform="matrix(7.9911709,0,0,8.0036407,-167.7909,-4846.0776)"
         id="g12027"
         inkscape:export-xdpi="12"
         inkscape:export-ydpi="12" />
      <rect
         style="display:inline;overflow:visible;visibility:visible;fill:#f0f0f0;fill-opacity:1;fill-rule:nonzero;stroke:none;stroke-width:0.5;marker:none;enable-background:accumulate"
         id="rect13805"
         width="128"
         height="128"
         x="9.2651362e-08"
         y="172"
         inkscape:label="512x512" />
      <g
         id="g883"
         style="fill:none;fill-opacity:0.25098039;stroke:#a579b3;stroke-opacity:1"
         transform="translate(-24,24)" />
      <g
         id="g900"
         style="fill:none;fill-opacity:0.25098039;stroke:#a579b3;stroke-opacity:1"
         transform="translate(-24,24)" />
      <rect
         inkscape:label="512x512"
         y="172"
         x="160"
         height="16"
         width="16"
         id="rect859"
         style="display:inline;overflow:visible;visibility:visible;fill:#f0f0f0;fill-opacity:1;fill-rule:nonzero;stroke:none;stroke-width:0.5;marker:none;enable-background:accumulate" />
      <text
         xml:space="preserve"
         style="font-style:normal;font-variant:normal;font-weight:bold;font-stretch:normal;font-size:4px;line-height:125%;font-family:Cantarell;-inkscape-font-specification:'Cantarell, Bold';text-align:start;writing-mode:lr-tb;text-anchor:start;display:inline;fill:#000000;fill-opacity:1;stroke:none;stroke-width:0.33264872;enable-background:new"
         x="0"
         y="164"
         id="text863"
         inkscape:label="icon-name"><tspan
           style="font-size:4px;stroke-width:0.33264872"
           sodipodi:role="line"
           id="tspan861"
           x="0"
           y="164">Hicolor</tspan></text>
      <text
         inkscape:label="icon-name"
         id="text867"
         y="164"
         x="160"
         style="font-style:normal;font-variant:normal;font-weight:bold;font-stretch:normal;font-size:4px;line-height:125%;font-family:Cantarell;-inkscape-font-specification:'Cantarell, Bold';text-align:start;writing-mode:lr-tb;text-anchor:start;display:inline;fill:#000000;fill-opacity:1;stroke:none;stroke-width:0.33264872;enable-background:new"
         xml:space="preserve"><tspan
           y="164"
           x="160"
           id="tspan865"
           sodipodi:role="line"
           style="font-size:4px;stroke-width:0.33264872">Symbolic</tspan></text>
    </g>
    <g
       inkscape:groupmode="layer"
       id="layer9"
       inkscape:label="icons"
       style="display:inline">
      <rect
         style="opacity:1;fill:#ffffff;fill-opacity:1;stroke:none;stroke-width:1.00999999;stroke-miterlimit:4;stroke-dasharray:none;stroke-opacity:1"
         id="rect60"
         width="88"
         height="112"
         x="20"
         y="180"
         ry="8"
         inkscape:export-xdpi="109.71429"
         inkscape:export-ydpi="109.71429" />
      <g
         id="g4966"
         transform="translate(0,0.07142861)">
        <g
           transform="matrix(0.9230769,0,0,0.92857155,6.4615398,40.99998)"
           id="g4818">
          <circle
             r="7.000001"
             cy="208"
             cx="32"
             id="circle4712"
             style="fill:#1a5fb4;fill-opacity:1;stroke-width:1.38247132" />
          <rect
             transform="matrix(1.3832014,0,0,3.6479231,107.06695,-515.6997)"
             clip-path="url(#clipPath2338)"
             ry="6.0699625"
             y="200.07251"
             x="-63.404022"
             height="20.653635"
             width="18.267157"
             id="rect4714"
             style="fill:#1a5fb4;fill-opacity:1;stroke:none;stroke-width:1.0292325;stroke-linecap:round;stroke-linejoin:round;stroke-opacity:1;paint-order:stroke fill markers" />
          <rect
             ry="0.15577523"
             y="197.01877"
             x="20.018768"
             height="25.962452"
             width="23.962461"
             id="rect4716"
             style="fill:none;fill-opacity:1;stroke:#241f31;stroke-width:2.03753996;stroke-linecap:round;stroke-linejoin:miter;stroke-miterlimit:4;stroke-dasharray:none;stroke-opacity:1;paint-order:stroke fill markers" />
        </g>
        <g
           id="g4944"
           transform="matrix(0.9230769,0,0,0.92857155,34.461539,40.857118)">
          <circle
             style="fill:#1a5fb4;fill-opacity:1;stroke-width:1.38247132"
             id="circle4938"
             cx="32"
             cy="208"
             r="7.000001" />
          <rect
             style="fill:#1a5fb4;fill-opacity:1;stroke:none;stroke-width:1.0292325;stroke-linecap:round;stroke-linejoin:round;stroke-opacity:1;paint-order:stroke fill markers"
             id="rect4940"
             width="18.267157"
             height="20.653635"
             x="-63.404022"
             y="200.07251"
             ry="6.0699625"
             clip-path="url(#clipPath2338)"
             transform="matrix(1.3832014,0,0,3.6479231,107.06695,-515.6997)" />
          <rect
             style="fill:none;fill-opacity:1;stroke:#241f31;stroke-width:2.03753996;stroke-linecap:round;stroke-linejoin:miter;stroke-miterlimit:4;stroke-dasharray:none;stroke-opacity:1;paint-order:stroke fill markers"
             id="rect4942"
             width="23.962461"
             height="25.962452"
             x="20.018768"
             y="197.01877"
             ry="0.15577523" />
        </g>
        <g
           transform="matrix(0.9230769,0,0,0.92857155,62.461539,40.857118)"
           id="g4952">
          <circle
             r="7.000001"
             cy="208"
             cx="32"
             id="circle4946"
             style="fill:#1a5fb4;fill-opacity:1;stroke-width:1.38247132" />
          <rect
             transform="matrix(1.3832014,0,0,3.6479231,107.06695,-515.6997)"
             clip-path="url(#clipPath2338)"
             ry="6.0699625"
             y="200.07251"
             x="-63.404022"
             height="20.653635"
             width="18.267157"
             id="rect4948"
             style="fill:#1a5fb4;fill-opacity:1;stroke:none;stroke-width:1.0292325;stroke-linecap:round;stroke-linejoin:round;stroke-opacity:1;paint-order:stroke fill markers" />
          <rect
             ry="0.15577523"
             y="197.01877"
             x="20.018768"
             height="25.962452"
             width="23.962461"
             id="rect4950"
             style="fill:none;fill-opacity:1;stroke:#241f31;stroke-width:2.03753996;stroke-linecap:round;stroke-linejoin:miter;stroke-miterlimit:4;stroke-dasharray:none;stroke-opacity:1;paint-order:stroke fill markers" />
        </g>
      </g>
      <g
         id="g4992"
         transform="translate(6.8031473e-7,-32.749995)">
        <g
           id="g4974"
           transform="matrix(0.9230769,0,0,0.92857155,6.4615398,40.99998)">
          <circle
             style="fill:#1a5fb4;fill-opacity:1;stroke-width:1.38247132"
             id="circle4968"
             cx="32"
             cy="208"
             r="7.000001" />
          <rect
             style="fill:#1a5fb4;fill-opacity:1;stroke:none;stroke-width:1.0292325;stroke-linecap:round;stroke-linejoin:round;stroke-opacity:1;paint-order:stroke fill markers"
             id="rect4970"
             width="18.267157"
             height="20.653635"
             x="-63.404022"
             y="200.07251"
             ry="6.0699625"
             clip-path="url(#clipPath2338)"
             transform="matrix(1.3832014,0,0,3.6479231,107.06695,-515.6997)" />
          <rect
             style="fill:none;fill-opacity:1;stroke:#241f31;stroke-width:2.03753996;stroke-linecap:round;stroke-linejoin:miter;stroke-miterlimit:4;stroke-dasharray:none;stroke-opacity:1;paint-order:stroke fill markers"
             id="rect4972"
             width="23.962461"
             height="25.962452"
             x="20.018768"
             y="197.01877"
             ry="0.15577523" />
        </g>
        <g
           transform="matrix(0.9230769,0,0,0.92857155,34.461539,40.857118)"
           id="g4982">
          <circle
             r="7.000001"
             cy="208"
             cx="32"
             id="circle4976"
             style="fill:#1a5fb4;fill-opacity:1;stroke-width:1.38247132" />
          <rect
             transform="matrix(1.3832014,0,0,3.6479231,107.06695,-515.6997)"
             clip-path="url(#clipPath2338)"
             ry="6.0699625"
             y="200.07251"
             x="-63.404022"
             height="20.653635"
             width="18.267157"
             id="rect4978"
             style="fill:#1a5fb4;fill-opacity:1;stroke:none;stroke-width:1.0292325;stroke-linecap:round;stroke-linejoin:round;stroke-opacity:1;paint-order:stroke fill markers" />
          <rect
             ry="0.15577523"
             y="197.01877"
             x="20.018768"
             height="25.962452"
             width="23.962461"
             id="rect4980"
             style="fill:none;fill-opacity:1;stroke:#241f31;stroke-width:2.03753996;stroke-linecap:round;stroke-linejoin:miter;stroke-miterlimit:4;stroke-dasharray:none;stroke-opacity:1;paint-order:stroke fill markers" />
        </g>
        <g
           id="g4990"
           transform="matrix(0.9230769,0,0,0.92857155,62.461539,40.857118)">
          <circle
             style="fill:#1a5fb4;fill-opacity:1;stroke-width:1.38247132"
             id="circle4984"
             cx="32"
             cy="208"
             r="7.000001" />
          <rect
             style="fill:#1a5fb4;fill-opacity:1;stroke:none;stroke-width:1.0292325;stroke-linecap:round;stroke-linejoin:round;stroke-opacity:1;paint-order:stroke fill markers"
             id="rect4986"
             width="18.267157"
             height="20.653635"
             x="-63.404022"
             y="200.07251"
             ry="6.0699625"
             clip-path="url(#clipPath2338)"
             transform="matrix(1.3832014,0,0,3.6479231,107.06695,-515.6997)" />
          <rect
             style="fill:none;fill-opacity:1;stroke:#241f31;stroke-width:2.03753996;stroke-linecap:round;stroke-linejoin:miter;stroke-miterlimit:4;stroke-dasharray:none;stroke-opacity:1;paint-order:stroke fill markers"
             id="rect4988"
             width="23.962461"
             height="25.962452"
             x="20.018768"
             y="197.01877"
             ry="0.15577523" />
        </g>
      </g>
      <g
         id="g5018"
         transform="translate(6.8031473e-7,32.892857)">
        <g
           id="g5000"
           transform="matrix(0.9230769,0,0,0.92857155,6.4615398,40.99998)">
          <circle
             style="fill:#1a5fb4;fill-opacity:1;stroke-width:1.38247132"
             id="circle4994"
             cx="32"
             cy="208"
             r="7.000001" />
          <rect
             style="fill:#1a5fb4;fill-opacity:1;stroke:none;stroke-width:1.0292325;stroke-linecap:round;stroke-linejoin:round;stroke-opacity:1;paint-order:stroke fill markers"
             id="rect4996"
             width="18.267157"
             height="20.653635"
             x="-63.404022"
             y="200.07251"
             ry="6.0699625"
             clip-path="url(#clipPath2338)"
             transform="matrix(1.3832014,0,0,3.6479231,107.06695,-515.6997)" />
          <rect
             style="fill:none;fill-opacity:1;stroke:#241f31;stroke-width:2.03753996;stroke-linecap:round;stroke-linejoin:miter;stroke-miterlimit:4;stroke-dasharray:none;stroke-opacity:1;paint-order:stroke fill markers"
             id="rect4998"
             width="23.962461"
             height="25.962452"
             x="20.018768"
             y="197.01877"
             ry="0.15577523" />
        </g>
        <g
           transform="matrix(0.9230769,0,0,0.92857155,34.461539,40.857118)"
           id="g5008">
          <circle
             r="7.000001"
             cy="208"
             cx="32"
             id="circle5002"
             style="fill:#1a5fb4;fill-opacity:1;stroke-width:1.38247132" />
          <rect
             transform="matrix(1.3832014,0,0,3.6479231,107.06695,-515.6997)"
             clip-path="url(#clipPath2338)"
             ry="6.0699625"
             y="200.07251"
             x="-63.404022"
             height="20.653635"
             width="18.267157"
             id="rect5004"
             style="fill:#1a5fb4;fill-opacity:1;stroke:none;stroke-width:1.0292325;stroke-linecap:round;stroke-linejoin:round;stroke-opacity:1;paint-order:stroke fill markers" />
          <rect
             ry="0.15577523"
             y="197.01877"
             x="20.018768"
             height="25.962452"
             width="23.962461"
             id="rect5006"
             style="fill:none;fill-opacity:1;stroke:#241f31;stroke-width:2.03753996;stroke-linecap:round;stroke-linejoin:miter;stroke-miterlimit:4;stroke-dasharray:none;stroke-opacity:1;paint-order:stroke fill markers" />
        </g>
        <g
           id="g5016"
           transform="matrix(0.9230769,0,0,0.92857155,62.461539,40.857118)">
          <circle
             style="fill:#1a5fb4;fill-opacity:1;stroke-width:1.38247132"
             id="circle5010"
             cx="32"
             cy="208"
             r="7.000001" />
          <rect
             style="fill:#1a5fb4;fill-opacity:1;stroke:none;stroke-width:1.0292325;stroke-linecap:round;stroke-linejoin:round;stroke-opacity:1;paint-order:stroke fill markers"
             id="rect5012"
             width="18.267157"
             height="20.653635"
             x="-63.404022"
             y="200.07251"
             ry="6.0699625"
             clip-path="url(#clipPath2338)"
             transform="matrix(1.3832014,0,0,3.6479231,107.06695,-515.6997)" />
          <rect
             style="fill:none;fill-opacity:1;stroke:#241f31;stroke-width:2.03753996;stroke-linecap:round;stroke-linejoin:miter;stroke-miterlimit:4;stroke-dasharray:none;stroke-opacity:1;paint-order:stroke fill markers"
             id="rect5014"
             width="23.962461"
             height="25.962452"
             x="20.018768"
             y="197.01877"
             ry="0.15577523" />
        </g>
      </g>
      <rect
         style="opacity:1;fill:none;fill-opacity:1;stroke:none;stroke-width:1.00999999;stroke-linecap:round;stroke-linejoin:miter;stroke-miterlimit:4;stroke-dasharray:none;stroke-opacity:1;paint-order:stroke fill markers"
         id="rect5020"
         width="128"
         height="112"
         x="0"
         y="180"
         ry="8"
         rx="0" />
      <rect
         style="opacity:1;fill:none;fill-opacity:1;stroke:none;stroke-width:1.00999999;stroke-linecap:round;stroke-linejoin:miter;stroke-miterlimit:4;stroke-dasharray:none;stroke-opacity:1;paint-order:stroke fill markers"
         id="rect5022"
         width="112"
         height="112"
         x="8"
         y="180"
         ry="8"
         inkscape:export-xdpi="109.71429"
         inkscape:export-ydpi="109.71429" />
      <rect
         style="opacity:1;fill:none;fill-opacity:1;stroke:none;stroke-width:1.00999999;stroke-linecap:round;stroke-linejoin:miter;stroke-miterlimit:4;stroke-dasharray:none;stroke-opacity:1;paint-order:stroke fill markers"
         id="rect4616"
         width="120"
         height="112"
         x="0"
         y="180"
         ry="8" />
      <rect
         style="opacity:1;fill:none;fill-opacity:1;stroke:none;stroke-width:1.00999999;stroke-linecap:round;stroke-linejoin:miter;stroke-miterlimit:4;stroke-dasharray:none;stroke-opacity:1;paint-order:stroke fill markers"
         id="rect4621"
         width="112"
         height="112"
         x="8"
         y="180"
         ry="8"
         inkscape:export-xdpi="13.71"
         inkscape:export-ydpi="13.71" />
    </g>
    <g
       inkscape:groupmode="layer"
       id="layer3"
       inkscape:label="hairlines"
       style="display:none"
       sodipodi:insensitive="true">
      <circle
         cx="64.000031"
         cy="236"
         r="59.504131"
         id="circle2892"
         style="display:inline;opacity:0.1;vector-effect:none;fill:none;fill-opacity:1;stroke:#000000;stroke-width:0.99000001;stroke-linecap:butt;stroke-linejoin:miter;stroke-miterlimit:4;stroke-dasharray:0.99000001, 0.99000001;stroke-dashoffset:0;stroke-opacity:1;marker:none;marker-start:none;marker-mid:none;marker-end:none;paint-order:normal;enable-background:new" />
      <rect
         ry="7.9292889"
         rx="8.701004"
         y="180.49496"
         x="20.495007"
         height="111.01005"
         width="87.009987"
         id="rect2894"
         style="display:inline;opacity:0.1;vector-effect:none;fill:none;fill-opacity:1;stroke:#000000;stroke-width:0.99000001;stroke-linecap:butt;stroke-linejoin:miter;stroke-miterlimit:4;stroke-dasharray:0.99000001, 0.99000001;stroke-dashoffset:0;stroke-opacity:1;marker:none;marker-start:none;marker-mid:none;marker-end:none;paint-order:normal;enable-background:new" />
      <rect
         ry="7.9238095"
         rx="7.9238095"
         y="184.49524"
         x="12.495266"
         height="103.00952"
         width="103.00952"
         id="rect2896"
         style="display:inline;opacity:0.1;vector-effect:none;fill:none;fill-opacity:1;stroke:#000000;stroke-width:0.99000001;stroke-linecap:butt;stroke-linejoin:miter;stroke-miterlimit:4;stroke-dasharray:0.99000001, 0.99000001;stroke-dashoffset:0;stroke-opacity:1;marker:none;marker-start:none;marker-mid:none;marker-end:none;paint-order:normal;enable-background:new" />
      <rect
         ry="8.701005"
         rx="7.9292889"
         y="200.49496"
         x="8.4950066"
         height="87.010048"
         width="111.01004"
         id="rect2898"
         style="display:inline;opacity:0.1;vector-effect:none;fill:none;fill-opacity:1;stroke:#000000;stroke-width:0.99000001;stroke-linecap:butt;stroke-linejoin:miter;stroke-miterlimit:4;stroke-dasharray:0.99000001, 0.99000001;stroke-dashoffset:0;stroke-opacity:1;marker:none;marker-start:none;marker-mid:none;marker-end:none;paint-order:normal;enable-background:new" />
      <path
         inkscape:connector-curvature="0"
         id="path2900"
         d="M 2.6203015e-5,288.99999 H 128.00003"
         style="display:inline;fill:none;stroke:#62a0ea;stroke-width:2;stroke-linecap:butt;stroke-linejoin:miter;stroke-miterlimit:4;stroke-dasharray:none;stroke-opacity:1;enable-background:new" />
    </g>
  </g>
</svg>
